…
---

    Code
      adj_sets2
    Output
      # DAG:
      # A `dagitty` DAG with: 7 nodes and 11 edges
      # Exposure: x
      # Outcome: y
      # Adjustment sets: 3 sets: {w1, w2, z2}, {v, w1}, {w1, z1}
      #
      # Data:
      # A tibble: 36 x 9
         name      x      y direction to     xend   yend adjusted   set         
         <chr> <int>  <dbl> <fct>     <chr> <int>  <dbl> <chr>      <chr>       
       1 v         1 -0.709 ->        z1        2  0.996 unadjusted {w1, w2, z2}
       2 v         1 -0.709 ->        z2        3  0.396 unadjusted {w1, w2, z2}
       3 w1        1  0.054 ->        x         3 -1.08  adjusted   {w1, w2, z2}
       4 w1        1  0.054 ->        y         4 -0.479 adjusted   {w1, w2, z2}
       5 w1        1  0.054 ->        z1        2  0.996 adjusted   {w1, w2, z2}
       6 w1        1  0.054 <->       w2        1  0.818 adjusted   {w1, w2, z2}
       7 w2        1  0.818 ->        y         4 -0.479 adjusted   {w1, w2, z2}
       8 w2        1  0.818 ->        z2        3  0.396 adjusted   {w1, w2, z2}
       9 x         3 -1.08  ->        y         4 -0.479 unadjusted {w1, w2, z2}
      10 y         4 -0.479 <NA>      <NA>     NA NA     unadjusted {w1, w2, z2}
      # i 26 more rows
…
