Covariate Adjustment Sets — Covariate Adjustment Sets • ggdag
…
tidy_dagitty(dag) %>% dag_adjustment_sets()
#> # A DAG with 7 nodes and 33 edges
#> #
#> # Exposure: x
#> # Outcome: y
#> #
#> # A tibble: 36 × 10
#>    name      x       y direction to      xend   yend circular adjusted   set    
#>    <chr> <dbl>   <dbl> <fct>     <chr>  <dbl>  <dbl> <lgl>    <chr>      <chr>  
#>  1 v     2.18   0.0732 ->        z1     0.946 -0.595 FALSE    unadjusted {w1, w…
#>  2 v     2.18   0.0732 ->        z2     2.83  -1.13  FALSE    unadjusted {w1, w…
#>  3 w1    1.10  -2.04   ->        x      0.387 -1.51  FALSE    adjusted   {w1, w…
#>  4 w1    1.10  -2.04   ->        y      1.79  -1.76  FALSE    adjusted   {w1, w…
#>  5 w1    1.10  -2.04   ->        z1     0.946 -0.595 FALSE    adjusted   {w1, w…
#>  6 w1    1.10  -2.04   <->       w2     2.46  -2.36  FALSE    adjusted   {w1, w…
#>  7 w2    2.46  -2.36   ->        y      1.79  -1.76  FALSE    adjusted   {w1, w…
#>  8 w2    2.46  -2.36   ->        z2     2.83  -1.13  FALSE    adjusted   {w1, w…
#>  9 x     0.387 -1.51   ->        y      1.79  -1.76  FALSE    unadjusted {w1, w…
#> 10 y     1.79  -1.76   NA        NA    NA     NA     FALSE    unadjusted {w1, w…
#> # ℹ 26 more rows
…
