…
time_points <- list(c("a", "b", "c"), "d", c("e", "f", "g"), "z")

time_points |>
  # create a saturated, time-ordered DAG
  as_tidy_dagitty() |>
  # remove the edge from `c` to `f`
  dag_prune(c("c" = "f"))
#> # DAG:
#> # A `dagitty` DAG with: 8 nodes and 21 edges
#> #
#> # Data:
#> # A tibble: 22 × 7
#>    name      x     y direction to     xend  yend
#>    <chr> <dbl> <int> <fct>     <chr> <dbl> <int>
#>  1 a         1    -1 ->        d         2     0
#>  2 a         1    -1 ->        e         3    -1
#>  3 a         1    -1 ->        f         3     0
#>  4 a         1    -1 ->        g         3     1
#>  5 a         1    -1 ->        z         4     0
#>  6 b         1     0 ->        d         2     0
#>  7 b         1     0 ->        e         3    -1
#>  8 b         1     0 ->        f         3     0
#>  9 b         1     0 ->        g         3     1
#> 10 b         1     0 ->        z         4     0
#> # ℹ 12 more rows
…
