Convert objects into tidy_dagitty objects — as_tidy_dagitty • ggdag
…
time_points <- list(c("a", "b", "c"), "d", c("e", "f", "g"), "z")

time_points %>%
  # create a saturated, time-ordered DAG
  as_tidy_dagitty() %>%
  # remove the edge from `c` to `f`
  dag_prune(c("c" = "f"))
#> # A DAG with 8 nodes and 21 edges
#> #
#> # A tibble: 22 × 8
#>    name      x     y direction to     xend  yend circular
#>    <chr> <dbl> <int> <fct>     <chr> <dbl> <int> <lgl>   
#>  1 a         1    -1 ->        d         2     0 FALSE   
#>  2 a         1    -1 ->        e         3    -1 FALSE   
#>  3 a         1    -1 ->        f         3     0 FALSE   
#>  4 a         1    -1 ->        g         3     1 FALSE   
#>  5 a         1    -1 ->        z         4     0 FALSE   
#>  6 b         1     0 ->        d         2     0 FALSE   
#>  7 b         1     0 ->        e         3    -1 FALSE   
#>  8 b         1     0 ->        f         3     0 FALSE   
#>  9 b         1     0 ->        g         3     1 FALSE   
#> 10 b         1     0 ->        z         4     0 FALSE   
#> # ℹ 12 more rows
…
