Simulate Data from Structural Equation Model — simulate_data • ggdag
…
standardized
whether a standardized output is desired (all variables
have variance 1).

    Value

    a tblwith N values for each variable in .tdy_dag

    Examples

dagify(y ~ z, x ~ z) %>%
  tidy_dagitty() %>%
  simulate_data()
#> # A tibble: 500 × 3
#>           x       y       z
#>       <dbl>   <dbl>   <dbl>
#>  1  0.358   -1.54    2.49  
#>  2 -0.975    0.204  -0.0999
#>  3  1.88    -0.704  -0.0611
#>  4  0.0579   1.12   -1.42  
#>  5 -1.46    -0.349  -0.0291
#>  6  0.152   -0.141  -0.422 
#>  7  0.00618  2.29   -0.692 
#>  8  0.400    0.748  -0.123 
#>  9  1.29    -1.28    0.128 
#> 10  0.517   -0.0827 -0.464 
#> # ℹ 490 more rows
…
