…
  whether a standardized output is desired (all variables have variance
  1).

## Value

a `tbl`with N values for each variable in .tdy_dag

## Examples

``` r
dagify(y ~ z, x ~ z) |>
  tidy_dagitty() |>
  simulate_data()
#> # A tibble: 500 × 3
#>          x       y      z
#>      <dbl>   <dbl>  <dbl>
#>  1  1.40   -0.161   0.377
#>  2 -0.543   1.35    0.564
#>  3 -0.371  -0.0125  0.633
#>  4  1.13   -1.17   -0.267
#>  5 -0.336  -0.808   0.174
#>  6 -0.0671 -0.624   0.595
#>  7  0.485   0.583  -0.771
#>  8 -1.21    0.0872  0.522
#>  9 -0.858  -0.461   0.552
#> 10  0.252  -0.734   0.432
#> # ℹ 490 more rows
```
